Enhancing reproducibility with the IPUMS API and the ipumsr package
…
But perhaps the most important element for understanding and analyzing the data
is the "var_info" element, so let's take a look at that.

---

# The DDI codebook is the recipe

```r
ddi$var_info
#> # A tibble: 35 x 10
#>    var_name var_label                                        var_desc                    val_labels code_instr start   end imp_decim var_type rectypes
#>    <chr>    <chr>                                            <chr>                       <list>     <chr>      <dbl> <dbl>     <dbl> <chr>    <lgl>   
#>  1 YEAR     "Census year"                                    "YEAR reports the four-dig~ <tibble>    <NA>          1     4         0 integer  NA      
#>  2 SAMPLE   "IPUMS sample identifier"                        "SAMPLE identifies the IPU~ <tibble>    <NA>          5    10         0 integer  NA      
#>  3 SERIAL   "Household serial number"                        "SERIAL is an identifying ~ <tibble>   "CodesSER~    11    18         0 numeric  NA      
#>  4 CBSERIAL "Original Census Bureau household serial number" "CBSERIAL is the unique, o~ <tibble>   "CodesCBS~    19    31         0 numeric  NA      
#>  5 HHWT     "Household weight"                               "HHWT indicates how many h~ <tibble>   "CodesHHW~    32    41         2 numeric  NA      
#>  6 CPI99    "CPI-U adjustment factor to 1999 dollars"        "CPI99 provides the CPI-U ~ <tibble>   "CodesCPI~    42    46         3 numeric  NA      
#>  7 GQ       "Group quarters status"                          "GQ classifies all housing~ <tibble>    <NA>         47    47         0 integer  NA      
#>  8 COSTELEC "Annual electricity cost"                        "COSTELEC for 1970 reports~ <tibble>   "CodesCOS~    48    51         0 numeric  NA      
#>  9 HHINCOME "Total household income "                        "HHINCOME reports the tota~ <tibble>   "CodesHHI~    52    58         0 numeric  NA      
#> 10 VACANCY  "Vacancy status"                                 "VACANCY identifies vacant~ <tibble>    <NA>         59    59         0 integer  NA      
#> # ... with 25 more rows
```
…
Luckily ipumsr provides helpers that allow you to use information from both the
value and label to transform your variables into the shape you want.

---

# haven::labelled columns at a glance

```r
data
#> # A tibble: 137,900 x 35
#>     YEAR             SAMPLE SERIAL CBSERIAL  HHWT CPI99      GQ   COSTELEC     HHINCOME VACANCY CINETHH PERNUM PERWT MOMLOC POPLOC   RELATE    RELATED
#>    <int>          <int+lbl>  <dbl>    <dbl> <dbl> <dbl> <int+l>  <dbl+lbl>    <dbl+lbl> <int+l> <int+l>  <dbl> <dbl>  <dbl>  <dbl> <int+lb>  <int+lbl>
#>  1  2015 201502 [2015 PRCS]      1       74    32 0.703 3 [Gro~    0 [N/A] 1.00e7 [N/A~ 0 [N/A] 0 [N/A~      1    32      0      0 13 [Ins~ 1301 [Ins~
#>  2  2015 201502 [2015 PRCS]      2      221    67 0.703 1 [Hou~ 4320       1.2 e4       0 [N/A] 3 [No ~      1    68      0      0  1 [Hea~  101 [Hea~
#>  3  2015 201502 [2015 PRCS]      2      221    67 0.703 1 [Hou~ 4320       1.2 e4       0 [N/A] 3 [No ~      2    89      0      0  2 [Spo~  201 [Spo~
#>  4  2015 201502 [2015 PRCS]      2      221    67 0.703 1 [Hou~ 4320       1.2 e4       0 [N/A] 3 [No ~      3    99      1      2  3 [Chi~  301 [Chi~
#>  5  2015 201502 [2015 PRCS]      3      310    60 0.703 1 [Hou~  480       2.3 e4       0 [N/A] 1 [Yes~      1    60      0      0  1 [Hea~  101 [Hea~
#>  6  2015 201502 [2015 PRCS]      3      310    60 0.703 1 [Hou~  480       2.3 e4       0 [N/A] 1 [Yes~      2    86      0      0  2 [Spo~  201 [Spo~
#>  7  2015 201502 [2015 PRCS]      3      310    60 0.703 1 [Hou~  480       2.3 e4       0 [N/A] 1 [Yes~      3    93      2      1  3 [Chi~  301 [Chi~
#>  8  2015 201502 [2015 PRCS]      3      310    60 0.703 1 [Hou~  480       2.3 e4       0 [N/A] 1 [Yes~      4    91      2      1  3 [Chi~  301 [Chi~
#>  9  2015 201502 [2015 PRCS]      3      310    60 0.703 1 [Hou~  480       2.3 e4       0 [N/A] 1 [Yes~      5    91      2      1  3 [Chi~  301 [Chi~
#> 10  2015 201502 [2015 PRCS]      4     1087   110 0.703 1 [Hou~  840       4.36e4       0 [N/A] 1 [Yes~      1   111      0      0  1 [Hea~  101 [Hea~
#> # ... with 137,890 more rows, and 18 more variables: SEX <int+lbl>, AGE <int+lbl>, MARRINYR <int+lbl>, DIVINYR <int+lbl>, WIDINYR <int+lbl>,
#> #   FERTYR <int+lbl>, RACE <int+lbl>, RACED <int+lbl>, HISPAN <int+lbl>, HISPAND <int+lbl>, SPEAKENG <int+lbl>, EDUC <int+lbl>, EDUCD <int+lbl>,
#> #   EMPSTAT <int+lbl>, EMPSTATD <int+lbl>, INCTOT <dbl+lbl>, MIGRATE1 <int+lbl>, MIGRATE1D <int+lbl>
```
…
One thing I like about the behavior of `haven::labelled()` objects is how they 
show the value and the label when you print your data. 

But let's say you just don't want to deal with these special haven::labelled
objects, and you want to get rid of them in one fell swipe. I would advise
against this approach in general, but it could be what you want in some cases.

---

# Get rid of haven::labelled columns

```r
as_factor(data)
#> # A tibble: 137,900 x 35
#>     YEAR SAMPLE    SERIAL CBSERIAL  HHWT CPI99 GQ     COSTELEC HHINCOME VACANCY CINETHH PERNUM PERWT MOMLOC POPLOC RELATE RELATED SEX   AGE   MARRINYR
#>    <int> <fct>      <dbl>    <dbl> <dbl> <dbl> <fct>  <fct>    <fct>    <fct>   <fct>    <dbl> <dbl>  <dbl>  <dbl> <fct>  <fct>   <fct> <fct> <fct>   
#>  1  2015 2015 PRCS      1       74    32 0.703 Group~ N/A      "N/A "   N/A     N/A (G~      1    32      0      0 Insti~ Instit~ Male  34    N/A     
#>  2  2015 2015 PRCS      2      221    67 0.703 House~ 4320     "12000"  N/A     No Int~      1    68      0      0 Head/~ Head/H~ Fema~ 25    Blank (~
#>  3  2015 2015 PRCS      2      221    67 0.703 House~ 4320     "12000"  N/A     No Int~      2    89      0      0 Spouse Spouse  Male  36    Blank (~
#>  4  2015 2015 PRCS      2      221    67 0.703 House~ 4320     "12000"  N/A     No Int~      3    99      1      2 Child  Child   Male  2     N/A     
#>  5  2015 2015 PRCS      3      310    60 0.703 House~ 480      "23000"  N/A     Yes, w~      1    60      0      0 Head/~ Head/H~ Male  42    Blank (~
#>  6  2015 2015 PRCS      3      310    60 0.703 House~ 480      "23000"  N/A     Yes, w~      2    86      0      0 Spouse Spouse  Fema~ 38    Blank (~
#>  7  2015 2015 PRCS      3      310    60 0.703 House~ 480      "23000"  N/A     Yes, w~      3    93      2      1 Child  Child   Fema~ 13    N/A     
#>  8  2015 2015 PRCS      3      310    60 0.703 House~ 480      "23000"  N/A     Yes, w~      4    91      2      1 Child  Child   Fema~ 12    N/A     
#>  9  2015 2015 PRCS      3      310    60 0.703 House~ 480      "23000"  N/A     Yes, w~      5    91      2      1 Child  Child   Fema~ 9     N/A     
#> 10  2015 2015 PRCS      4     1087   110 0.703 House~ 840      "43600"  N/A     Yes, w~      1   111      0      0 Head/~ Head/H~ Male  28    Yes     
#> # ... with 137,890 more rows, and 15 more variables: DIVINYR <fct>, WIDINYR <fct>, FERTYR <fct>, RACE <fct>, RACED <fct>, HISPAN <fct>,
#> #   HISPAND <fct>, SPEAKENG <fct>, EDUC <fct>, EDUCD <fct>, EMPSTAT <fct>, EMPSTATD <fct>, INCTOT <fct>, MIGRATE1 <fct>, MIGRATE1D <fct>
```

???
One option is the `as_factor()` function, which can be applied to the whole data 
frame at once. Here we see that the values have been stripped away, leaving only 
the labels as factor levels.

---

# Get rid of haven::labelled columns

```r
zap_labels(data)
#> # A tibble: 137,900 x 35
#>     YEAR SAMPLE SERIAL CBSERIAL  HHWT CPI99    GQ COSTELEC HHINCOME VACANCY CINETHH PERNUM PERWT MOMLOC POPLOC RELATE RELATED   SEX   AGE MARRINYR
#>    <int>  <int>  <dbl>    <dbl> <dbl> <dbl> <int>    <dbl>    <dbl>   <int>   <int>  <dbl> <dbl>  <dbl>  <dbl>  <int>   <int> <int> <int>    <int>
#>  1  2015 201502      1       74    32 0.703     3        0  9999999       0       0      1    32      0      0     13    1301     1    34        0
#>  2  2015 201502      2      221    67 0.703     1     4320    12000       0       3      1    68      0      0      1     101     2    25        1
#>  3  2015 201502      2      221    67 0.703     1     4320    12000       0       3      2    89      0      0      2     201     1    36        1
#>  4  2015 201502      2      221    67 0.703     1     4320    12000       0       3      3    99      1      2      3     301     1     2        0
#>  5  2015 201502      3      310    60 0.703     1      480    23000       0       1      1    60      0      0      1     101     1    42        1
#>  6  2015 201502      3      310    60 0.703     1      480    23000       0       1      2    86      0      0      2     201     2    38        1
#>  7  2015 201502      3      310    60 0.703     1      480    23000       0       1      3    93      2      1      3     301     2    13        0
#>  8  2015 201502      3      310    60 0.703     1      480    23000       0       1      4    91      2      1      3     301     2    12        0
#>  9  2015 201502      3      310    60 0.703     1      480    23000       0       1      5    91      2      1      3     301     2     9        0
#> 10  2015 201502      4     1087   110 0.703     1      840    43600       0       1      1   111      0      0      1     101     1    28        2
#> # ... with 137,890 more rows, and 15 more variables: DIVINYR <int>, WIDINYR <int>, FERTYR <int>, RACE <int>, RACED <int>, HISPAN <int>,
#> #   HISPAND <int>, SPEAKENG <int>, EDUC <int>, EDUCD <int>, EMPSTAT <int>, EMPSTATD <int>, INCTOT <dbl>, MIGRATE1 <int>, MIGRATE1D <int>
```
…
???
Because lbl_na_if works with both values and labels, we could accomplish the 
same thing by referring to the labels. This time, we specify that PHONE3 should 
be set to missing if the original label was "N/A" or "Suppressed".

---

# `lbl_collapse()`
- `lbl_collapse()` allows you to take advantage of the hierarchical
  structure of value labels

```r
ipums_val_labels(data$EDUCD)
#> # A tibble: 44 x 2
#>      val lbl                      
#>    <int> <chr>                    
#>  1     0 N/A or no schooling      
#>  2     1 N/A                      
#>  3     2 No schooling completed   
#>  4    10 Nursery school to grade 4
#>  5    11 Nursery school, preschool
#>  6    12 Kindergarten             
#>  7    13 Grade 1, 2, 3, or 4      
#>  8    14 Grade 1                  
#>  9    15 Grade 2                  
#> 10    16 Grade 3                  
#> # ... with 34 more rows
```
…
