# A tibble: 6,404,579 × 14
    YEAR            SAMPLE SERIAL CBSERIAL  HHWT CLUSTER STRATA      GQ PERNUM PERWT     SEX   AGE     OCC
   <int>         <int+lbl>  <dbl>    <dbl> <dbl>   <dbl>  <dbl> <int+l>  <dbl> <dbl> <int+l> <int> <int+l>
 1  2017 201701 [2017 ACS]      1  2.02e12   206 2.02e12 250001 1 [Hou…      1   206 1 [Mal…    73    0 []
 2  2017 201701 [2017 ACS]      2  2.02e12    45 2.02e12 180001 1 [Hou…      1    45 2 [Fem…    31  350 []
 3  2017 201701 [2017 ACS]      3  2.02e12   136 2.02e12 240001 1 [Hou…      1   136 1 [Mal…    41 6260   
 4  2017 201701 [2017 ACS]      3  2.02e12   136 2.02e12 240001 1 [Hou…      2   121 2 [Fem…    48    0 []
 5  2017 201701 [2017 ACS]      3  2.02e12   136 2.02e12 240001 1 [Hou…      3   111 1 [Mal…    16    0 []
 6  2017 201701 [2017 ACS]      4  2.02e12    19 2.02e12 250001 1 [Hou…      1    18 2 [Fem…    37  230 []
 7  2017 201701 [2017 ACS]      4  2.02e12    19 2.02e12 250001 1 [Hou…      2    13 2 [Fem…    18    0 []
 8  2017 201701 [2017 ACS]      4  2.02e12    19 2.02e12 250001 1 [Hou…      3    23 1 [Mal…    17    0 []
 9  2017 201701 [2017 ACS]      4  2.02e12    19 2.02e12 250001 1 [Hou…      4    21 2 [Fem…     7    0 []
10  2017 201701 [2017 ACS]      4  2.02e12    19 2.02e12 250001 1 [Hou…      5    27 2 [Fem…     3    0 []
# … with 6,404,569 more rows, and 1 more variable: IND <int+lbl>
